Import system - additional details • tinycodet
…
import_as(~ dpr., "dplyr") |> suppressMessages()
import_inops("magrittr") |> suppressMessages()
d <- import_data("dplyr", "starwars")
d <- d %>% dpr.$group_by(species)

isS3method(f="arrange", class="data.frame", envir = dpr.) # this is an S3 method
#> [1] TRUE
isS3method(f="relocate", class="data.frame", envir = dpr.) # this is an S3 method
#> [1] TRUE
# this works:
d %>%
  dpr.$arrange(dpr.$desc(mass)) %>%
  dpr.$relocate(species, mass)
#> # A tibble: 87 × 14
#> # Groups:   species [38]
#>    species    mass name  height hair_color skin_color eye_color birth_year sex  
#>    <chr>     <dbl> <chr>  <int> <chr>      <chr>      <chr>          <dbl> <chr>
#>  1 Hutt       1358 Jabb…    175 NA         green-tan… orange         600   herm…
#>  2 Kaleesh     159 Grie…    216 none       brown, wh… green, y…       NA   male 
#>  3 Droid       140 IG-88    200 none       metal      red             15   none 
#>  4 Human       136 Dart…    202 none       white      yellow          41.9 male 
#>  5 Wookiee     136 Tarf…    234 brown      brown      blue            NA   male 
#>  6 Human       120 Owen…    178 brown, gr… light      blue            52   male 
#>  7 Trandosh…   113 Bossk    190 none       green      red             53   male 
#>  8 Wookiee     112 Chew…    228 brown      unknown    blue           200   male 
#>  9 Human       110 Jek …    180 brown      fair       blue            NA   male 
#> 10 Besalisk    102 Dext…    198 none       brown      yellow          NA   male 
#> # ℹ 77 more rows
#> # ℹ 5 more variables: gender <chr>, homeworld <chr>, films <list>,
#> #   vehicles <list>, starships <list>
…
